{
    "title": "CourseClasses",
    "model": "CourseClasses",
    "searchExpression":"indexof(title, '${text}') ge 0 or indexof(course/displayCode, '${text}') ge 0 or indexof(course/department/abbreviation, '${text}') ge 0 or indexof(course/department/name, '${text}') ge 0 or indexof(year/alternateName, '${text}') ge 0 )",
    "columns": [
        {
          "name":"course/displayCode",
          "property":"displayCode",
          "title":"Classes.DisplayCode"
        },
        {
          "name":"title",
          "property": "title",
          "title":"Classes.classTitle"
        },
        {
          "name":"year/alternateName",
          "property": "year",
          "title":"Classes.Year"
        },
        {
          "name":"period/name",
          "property": "period",
          "title":"Classes.Period"
        },
        {
          "name":"numberOfStudents",
          "property": "numberOfStudents",
          "title":"Classes.NumberOfStudents"
        },
        {
          "name":"maxNumberOfStudents",
          "property": "maxNumberOfStudents",
          "title":"Classes.MaxNumberOfStudents"
        },
        {
          "name":"weekHours",
          "property": "weekHours",
          "title":"Classes.WeekHours"
        },
        {
          "name":"totalHours",
          "property": "totalHours",
          "title":"Classes.TotalHours"
        },
        {
          "name":"id",
          "property":"id",
          "formatter": "ActionLinkFormatter",
          "actions" : [
            {
              "title": "Classes.Preview",
              "href": "#/classes/${id}/"
            }

          ]
        }
    ]
}
