{
  "title": "Instructors",
  "model": "Instructors",
  "searchExpression":"indexof(department/name, '${text}') ge 0 or indexof(category, '${text}') ge 0 or indexof(familyName, '${text}') ge 0 or indexof(givenName, '${text}') ge 0 or indexof(email, '${text}') ge 0)",
  "columns": [
    {
      "name": "familyName",
      "property": "familyName",
      "title":"Instructors.FullName",
      "formatter": "TemplateFormatter",
      "formatString": "${familyName} ${givenName}"
    },
    {
      "name":"givenName",
      "property": "givenName",
      "title":"Instructors.GivenName",
      "hidden": true
    },
    {
      "name":"department/name",
      "property": "departmentName",
      "title":"Instructors.Department"
    },
    {
      "name":"category",
      "title":"Instructors.Category"
    },

    {
      "name":"email",
      "title":"Instructors.Email"
    },
    {
      "name":"workPhone",
      "title":"Instructors.WorkPhone"
    },
    {
      "name":"id",
      "property": "id",
      "formatter": "ActionLinkFormatter",
      "actions" : [
        {
          "title": "Instructors.Preview",
          "href": "#/instructors/${id}/dashboard"
        },
        {
          "title": "Instructors.Edit",
          "href": "#/instructors/${id}/edit"
        }

      ]

    }

  ],
  "criteria": [
    {
      "name": "InstructorStatus",
      "title": "Instructors.Status",
      "values": [
        {
          "title":"Instructors.Active",
          "filter":"status eq 1"
        },
        {
          "Title":"Instructors.Inactive",
          "filter":"status eq 2"
        }
      ]
    }
  ]
}
